<?xml version="1.0" encoding="UTF-8"?>
<svg width="21px" height="22px" viewBox="0 0 21 22" version="1.1" xmlns="http://www.w3.org/2000/svg" xmlns:xlink="http://www.w3.org/1999/xlink">
    <!-- Generator: Sketch 61.2 (89653) - https://sketch.com -->
    <title>Group 40</title>
    <desc>Created with Sketch.</desc>
    <defs>
        <polygon id="path-1" points="0 0.196166667 20.81275 0.196166667 20.81275 21.9999796 0 21.9999796"></polygon>
    </defs>
    <g id="Event-detail" stroke="none" stroke-width="1" fill="none" fill-rule="evenodd">
        <g id="Desktop-Copy-9" transform="translate(-437.000000, -532.000000)">
            <g id="Group-40" transform="translate(437.000000, 532.000000)">
                <path d="M13.0285433,13.9829921 L14.9714567,13.9829921 L14.9726322,15.9370079 L14.9714567,15.9370079 L13.0285433,15.9370079 L13.0285433,13.9829921 Z M11.375,15.9370079 C11.375,16.854018 12.1167435,17.6 13.0285433,17.6 L14.9714567,17.6 C15.8832565,17.6 16.625,16.854018 16.625,15.9370079 L16.625,13.9829921 C16.625,13.065982 15.8832565,12.32 14.9714567,12.32 L13.0285433,12.32 C12.1167435,12.32 11.375,13.065982 11.375,13.9829921 L11.375,15.9370079 Z" id="Fill-1" fill="#000000"></path>
                <path d="M13.1579262,15.8068856 L14.843207,15.8068856 L14.8420738,14.1131144 L13.1579262,14.1131144 L13.1579262,15.8068856 Z M15.0320763,15.9968342 L12.9690569,15.9968342 L12.9690569,13.9231658 L15.0309431,13.9231658 L15.0320763,15.9968342 Z M13.0634916,12.5099486 C12.2366218,12.5099486 11.5638693,13.1865453 11.5638693,14.0181401 L11.5638693,15.9018599 C11.5638693,16.7334547 12.2366218,17.4100514 13.0634916,17.4100514 L14.9365084,17.4100514 C15.7633782,17.4100514 16.4361307,16.7334547 16.4361307,15.9018599 L16.4361307,14.0181401 C16.4361307,13.1865453 15.7633782,12.5099486 14.9365084,12.5099486 L13.0634916,12.5099486 Z M14.9365084,17.6 L13.0634916,17.6 C12.1323659,17.6 11.375,16.8383063 11.375,15.9018599 L11.375,14.0181401 C11.375,13.0816937 12.1323659,12.32 13.0634916,12.32 L14.9365084,12.32 C15.8676341,12.32 16.625,13.0816937 16.625,14.0181401 L16.625,15.9018599 C16.625,16.8383063 15.8676341,17.6 14.9365084,17.6 L14.9365084,17.6 Z" id="Fill-3" fill="#FFFFFF"></path>
                <path d="M15.7501037,7.92 C16.2331625,7.92 16.625,8.31412322 16.625,8.80020853 C16.625,9.28608531 16.2331625,9.68 15.7501037,9.68 C15.2668375,9.68 14.875,9.28608531 14.875,8.80020853 C14.875,8.31412322 15.2668375,7.92 15.7501037,7.92" id="Fill-5" fill="#000000"></path>
                <path d="M15.7500927,8.10644068 C15.3697304,8.10644068 15.0603617,8.41761017 15.0603617,8.80018644 C15.0603617,9.18238983 15.3697304,9.49355932 15.7500927,9.49355932 C16.1302696,9.49355932 16.4396383,9.18238983 16.4396383,8.80018644 C16.4396383,8.41761017 16.1302696,8.10644068 15.7500927,8.10644068 M15.7500927,9.68 C15.2675961,9.68 14.875,9.28530508 14.875,8.80018644 C14.875,8.31488136 15.2675961,7.92 15.7500927,7.92 C16.2325892,7.92 16.625,8.31488136 16.625,8.80018644 C16.625,9.28530508 16.2325892,9.68 15.7500927,9.68" id="Fill-7" fill="#FFFFFF"></path>
                <path d="M12.2498963,7.92 C12.7331625,7.92 13.125,8.31412322 13.125,8.80020853 C13.125,9.28608531 12.7331625,9.68 12.2498963,9.68 C11.7666301,9.68 11.375,9.28608531 11.375,8.80020853 C11.375,8.31412322 11.7666301,7.92 12.2498963,7.92" id="Fill-9" fill="#000000"></path>
                <path d="M12.2499073,8.10644068 C11.8697304,8.10644068 11.5603617,8.41761017 11.5603617,8.80018644 C11.5603617,9.18238983 11.8697304,9.49355932 12.2499073,9.49355932 C12.6302696,9.49355932 12.9396383,9.18238983 12.9396383,8.80018644 C12.9396383,8.41761017 12.6302696,8.10644068 12.2499073,8.10644068 M12.2499073,9.68 C11.7674108,9.68 11.375,9.28530508 11.375,8.80018644 C11.375,8.31488136 11.7674108,7.92 12.2499073,7.92 C12.7324039,7.92 13.125,8.31488136 13.125,8.80018644 C13.125,9.28530508 12.7324039,9.68 12.2499073,9.68" id="Fill-11" fill="#FFFFFF"></path>
                <g id="Group-15">
                    <mask id="mask-2" fill="white">
                        <use xlink:href="#path-1"></use>
                    </mask>
                    <g id="Clip-14"></g>
                    <path d="M5.03144444,0.196146296 C4.63263889,0.196146296 4.30811111,0.536127778 4.30811111,0.954127778 L4.30811111,1.91540556 L3.18519444,1.91540556 C1.42897222,1.91540556 0,3.41242407 0,5.25227593 L0,18.6631093 C0,20.5029611 1.42897222,21.9999796 3.18519444,21.9999796 L17.6275556,21.9999796 C19.3839722,21.9999796 20.81275,20.5029611 20.81275,18.6631093 C20.81275,18.245313 20.4882222,17.9055352 20.0894167,17.9055352 C19.6906111,17.9055352 19.3660833,18.245313 19.3660833,18.6631093 C19.3660833,19.6673685 18.5861667,20.4844241 17.6275556,20.4844241 L3.18519444,20.4844241 C2.22658333,20.4844241 1.44666667,19.6673685 1.44666667,18.6631093 L1.44666667,5.25227593 C1.44666667,4.24822037 2.22658333,3.43116481 3.18519444,3.43116481 L4.30811111,3.43116481 L4.30811111,4.39285 C4.30811111,4.81044259 4.63263889,5.15042407 5.03144444,5.15042407 C5.43044444,5.15042407 5.75497222,4.81044259 5.75497222,4.39285 L5.75497222,3.43116481 L9.64191667,3.43116481 L9.64191667,4.39285 C9.64191667,4.81044259 9.96644444,5.15042407 10.3654444,5.15042407 C10.7640556,5.15042407 11.0885833,4.81044259 11.0885833,4.39285 L11.0885833,3.43116481 L15.0169444,3.43116481 L15.0169444,4.39285 C15.0169444,4.81044259 15.3412778,5.15042407 15.7402778,5.15042407 C16.1390833,5.15042407 16.4636111,4.81044259 16.4636111,4.39285 L16.4636111,3.43116481 L17.6275556,3.43116481 C18.5861667,3.43116481 19.3660833,4.24822037 19.3660833,5.25227593 L19.3660833,14.3649611 C19.3660833,14.7825537 19.6906111,15.1225352 20.0894167,15.1225352 C20.4882222,15.1225352 20.81275,14.7825537 20.81275,14.3649611 L20.81275,5.25227593 C20.81275,3.41242407 19.3839722,1.91540556 17.6275556,1.91540556 L16.4636111,1.91540556 L16.4636111,0.954127778 C16.4636111,0.536127778 16.1390833,0.196146296 15.7402778,0.196146296 C15.3412778,0.196146296 15.0169444,0.536127778 15.0169444,0.954127778 L15.0169444,1.91540556 L11.0885833,1.91540556 L11.0885833,0.954127778 C11.0885833,0.536127778 10.7640556,0.196146296 10.3654444,0.196146296 C9.96644444,0.196146296 9.64191667,0.536127778 9.64191667,0.954127778 L9.64191667,1.91540556 L5.75497222,1.91540556 L5.75497222,0.954127778 C5.75497222,0.536127778 5.43044444,0.196146296 5.03144444,0.196146296" id="Fill-13" fill="#000000" mask="url(#mask-2)"></path>
                </g>
                <path d="M5.24989634,15.84 C5.73316254,15.84 6.125,16.2341232 6.125,16.7202085 C6.125,17.2060853 5.73316254,17.6 5.24989634,17.6 C4.76683746,17.6 4.375,17.2060853 4.375,16.7202085 C4.375,16.2341232 4.76683746,15.84 5.24989634,15.84" id="Fill-16" fill="#000000"></path>
                <path d="M5.24990732,16.0264407 C4.86973043,16.0264407 4.56036172,16.3376102 4.56036172,16.7201864 C4.56036172,17.1023898 4.86973043,17.4135593 5.24990732,17.4135593 C5.63026957,17.4135593 5.93963828,17.1023898 5.93963828,16.7201864 C5.93963828,16.3376102 5.63026957,16.0264407 5.24990732,16.0264407 M5.24990732,17.6 C4.76741076,17.6 4.375,17.2053051 4.375,16.7201864 C4.375,16.2348814 4.76741076,15.84 5.24990732,15.84 C5.73240388,15.84 6.125,16.2348814 6.125,16.7201864 C6.125,17.2053051 5.73240388,17.6 5.24990732,17.6" id="Fill-18" fill="#FFFFFF"></path>
                <path d="M5.24989634,7.92 C5.73316254,7.92 6.125,8.31412322 6.125,8.80020853 C6.125,9.28608531 5.73316254,9.68 5.24989634,9.68 C4.76683746,9.68 4.375,9.28608531 4.375,8.80020853 C4.375,8.31412322 4.76683746,7.92 5.24989634,7.92" id="Fill-20" fill="#000000"></path>
                <path d="M5.24990732,8.10644068 C4.86973043,8.10644068 4.56036172,8.41761017 4.56036172,8.80018644 C4.56036172,9.18238983 4.86973043,9.49355932 5.24990732,9.49355932 C5.63026957,9.49355932 5.93963828,9.18238983 5.93963828,8.80018644 C5.93963828,8.41761017 5.63026957,8.10644068 5.24990732,8.10644068 M5.24990732,9.68 C4.76741076,9.68 4.375,9.28530508 4.375,8.80018644 C4.375,8.31488136 4.76741076,7.92 5.24990732,7.92 C5.73240388,7.92 6.125,8.31488136 6.125,8.80018644 C6.125,9.28530508 5.73240388,9.68 5.24990732,9.68" id="Fill-22" fill="#FFFFFF"></path>
                <path d="M5.24989634,11.44 C5.73316254,11.44 6.125,11.8339147 6.125,12.32 C6.125,12.8060853 5.73316254,13.2 5.24989634,13.2 C4.76683746,13.2 4.375,12.8060853 4.375,12.32 C4.375,11.8339147 4.76683746,11.44 5.24989634,11.44" id="Fill-24" fill="#000000"></path>
                <path d="M5.24990732,11.6264407 C4.86973043,11.6264407 4.56036172,11.9376102 4.56036172,12.32 C4.56036172,12.7023898 4.86973043,13.0135593 5.24990732,13.0135593 C5.63026957,13.0135593 5.93963828,12.7023898 5.93963828,12.32 C5.93963828,11.9376102 5.63026957,11.6264407 5.24990732,11.6264407 M5.24990732,13.2 C4.76741076,13.2 4.375,12.8051186 4.375,12.32 C4.375,11.8346949 4.76741076,11.44 5.24990732,11.44 C5.73240388,11.44 6.125,11.8346949 6.125,12.32 C6.125,12.8051186 5.73240388,13.2 5.24990732,13.2" id="Fill-26" fill="#FFFFFF"></path>
                <path d="M8.75010366,11.44 C9.23316254,11.44 9.625,11.8339147 9.625,12.32 C9.625,12.8060853 9.23316254,13.2 8.75010366,13.2 C8.26683746,13.2 7.875,12.8060853 7.875,12.32 C7.875,11.8339147 8.26683746,11.44 8.75010366,11.44" id="Fill-28" fill="#000000"></path>
                <path d="M8.75009268,11.6264407 C8.36973043,11.6264407 8.06036172,11.9376102 8.06036172,12.32 C8.06036172,12.7023898 8.36973043,13.0135593 8.75009268,13.0135593 C9.13026957,13.0135593 9.43963828,12.7023898 9.43963828,12.32 C9.43963828,11.9376102 9.13026957,11.6264407 8.75009268,11.6264407 M8.75009268,13.2 C8.26759612,13.2 7.875,12.8051186 7.875,12.32 C7.875,11.8346949 8.26759612,11.44 8.75009268,11.44 C9.23258924,11.44 9.625,11.8346949 9.625,12.32 C9.625,12.8051186 9.23258924,13.2 8.75009268,13.2" id="Fill-30" fill="#FFFFFF"></path>
                <path d="M8.75010366,7.92 C9.23316254,7.92 9.625,8.31412322 9.625,8.80020853 C9.625,9.28608531 9.23316254,9.68 8.75010366,9.68 C8.26683746,9.68 7.875,9.28608531 7.875,8.80020853 C7.875,8.31412322 8.26683746,7.92 8.75010366,7.92" id="Fill-32" fill="#000000"></path>
                <path d="M8.75009268,8.10644068 C8.36973043,8.10644068 8.06036172,8.41761017 8.06036172,8.80018644 C8.06036172,9.18238983 8.36973043,9.49355932 8.75009268,9.49355932 C9.13026957,9.49355932 9.43963828,9.18238983 9.43963828,8.80018644 C9.43963828,8.41761017 9.13026957,8.10644068 8.75009268,8.10644068 M8.75009268,9.68 C8.26759612,9.68 7.875,9.28530508 7.875,8.80018644 C7.875,8.31488136 8.26759612,7.92 8.75009268,7.92 C9.23258924,7.92 9.625,8.31488136 9.625,8.80018644 C9.625,9.28530508 9.23258924,9.68 8.75009268,9.68" id="Fill-34" fill="#FFFFFF"></path>
                <path d="M8.75010366,15.84 C9.23316254,15.84 9.625,16.2341232 9.625,16.7202085 C9.625,17.2060853 9.23316254,17.6 8.75010366,17.6 C8.26683746,17.6 7.875,17.2060853 7.875,16.7202085 C7.875,16.2341232 8.26683746,15.84 8.75010366,15.84" id="Fill-36" fill="#000000"></path>
                <path d="M8.75009268,16.0264407 C8.36973043,16.0264407 8.06036172,16.3376102 8.06036172,16.7201864 C8.06036172,17.1023898 8.36973043,17.4135593 8.75009268,17.4135593 C9.13026957,17.4135593 9.43963828,17.1023898 9.43963828,16.7201864 C9.43963828,16.3376102 9.13026957,16.0264407 8.75009268,16.0264407 M8.75009268,17.6 C8.26759612,17.6 7.875,17.2053051 7.875,16.7201864 C7.875,16.2348814 8.26759612,15.84 8.75009268,15.84 C9.23258924,15.84 9.625,16.2348814 9.625,16.7201864 C9.625,17.2053051 9.23258924,17.6 8.75009268,17.6" id="Fill-38" fill="#FFFFFF"></path>
            </g>
        </g>
    </g>
</svg>