<?xml version="1.0" encoding="UTF-8"?>
<svg width="625px" height="37px" viewBox="0 0 625 37" version="1.1" xmlns="http://www.w3.org/2000/svg" xmlns:xlink="http://www.w3.org/1999/xlink">
    <g id="About" stroke="none" stroke-width="1" fill="none" fill-rule="evenodd">
        <g id="Group-18" fill="#1D1D1B">
            <polygon id="Fill-1" points="18.3672 0.0001 0.0002 18.3671 18.3682 36.7361 36.7362 18.3671 18.3692 0.0001"></polygon>
            <polygon id="Fill-2" points="55.1034 0.0001 36.7364 18.3671 55.1044 36.7361 73.4724 18.3671 55.1054 0.0001"></polygon>
            <polygon id="Fill-3" points="91.8396 0.0001 73.4726 18.3671 91.8406 36.7361 110.2086 18.3671 91.8416 0.0001"></polygon>
            <polygon id="Fill-4" points="128.5767 0.0001 110.2087 18.3671 128.5777 36.7361 146.9457 18.3671 128.5787 0.0001"></polygon>
            <polygon id="Fill-5" points="165.3129 0.0001 146.9459 18.3671 165.3139 36.7361 183.6819 18.3671 165.3149 0.0001"></polygon>
            <polygon id="Fill-6" points="202.0491 0.0001 183.6821 18.3671 202.0501 36.7361 220.4181 18.3671 202.0511 0.0001"></polygon>
            <polygon id="Fill-7" points="238.7844 0.0001 220.4184 18.3671 238.7854 36.7361 257.1544 18.3671 238.7864 0.0001"></polygon>
            <polygon id="Fill-8" points="275.5215 0.0001 257.1545 18.3671 275.5225 36.7361 293.8905 18.3671 275.5235 0.0001"></polygon>
            <polygon id="Fill-9" points="312.2577 0.0001 293.8907 18.3671 312.2587 36.7361 330.6267 18.3671 312.2597 0.0001"></polygon>
            <polygon id="Fill-10" points="348.9939 0.0001 330.6269 18.3671 348.9949 36.7361 367.3629 18.3671 348.9959 0.0001"></polygon>
            <polygon id="Fill-11" points="385.7301 0.0001 367.3631 18.3671 385.7311 36.7361 404.0991 18.3671 385.7321 0.0001"></polygon>
            <polygon id="Fill-12" points="422.4663 0.0001 404.0993 18.3671 422.4673 36.7361 440.8353 18.3671 422.4683 0.0001"></polygon>
            <polygon id="Fill-13" points="459.2025 0.0001 440.8355 18.3671 459.2035 36.7361 477.5715 18.3671 459.2045 0.0001"></polygon>
            <polygon id="Fill-14" points="495.9387 0.0001 477.5717 18.3671 495.9397 36.7361 514.3087 18.3671 495.9407 0.0001"></polygon>
            <polygon id="Fill-15" points="532.6758 0.0001 514.3088 18.3671 532.6768 36.7361 551.0448 18.3671 532.6778 0.0001"></polygon>
            <polygon id="Fill-16" points="569.412 0.0001 551.045 18.3671 569.413 36.7361 587.781 18.3671 569.414 0.0001"></polygon>
            <polygon id="Fill-17" points="606.1482 0.0001 587.7812 18.3671 606.1492 36.7361 624.5172 18.3671 606.1502 0.0001"></polygon>
        </g>
    </g>
</svg>